<?xml version="1.0" encoding="UTF-8"?>
<gpx creator="Wikiloc - https://www.wikiloc.com" version="1.1" xmlns="http://www.topografix.com/GPX/1/1" xmlns:xsi="http://www.w3.org/2001/XMLSchema-instance" xsi:schemaLocation="http://www.topografix.com/GPX/1/1 http://www.topografix.com/GPX/1/1/gpx.xsd">
  <metadata>
    <name>Wikiloc - Ruta paseo marítimo Barcelona (Garmin)</name>
    <link href="https://www.wikiloc.com/wikiloc/view.do?id=3981191">
      <text>Ruta paseo marítimo Barcelona (Garmin) on Wikiloc</text>
    </link>
    <time>2013-02-07T14:24:39Z</time>
  </metadata>
  <trk>
    <name>Ruta paseo marítimo Barcelona (Garmin)</name>
    <cmt>Ruta realizada a pie y en bici por el paseo maritimo de Barcelona, desde el puerto olímpico hasta el Forum y luego, de vuelta por Pueblo Nuevo. Track grabado con GPS Garmin y puntos cada 40m</cmt>
    <desc>Ruta realizada a pie y en bici por el paseo maritimo de Barcelona, desde el puerto olímpico hasta el Forum y luego, de vuelta por Pueblo Nuevo. Track grabado con GPS Garmin y puntos cada 40m</desc>
    <trkseg>
      <trkpt lat="41.385197" lon="2.199577">
        <ele>5.493</ele>
        <time>2013-02-07T13:19:39Z</time>
      </trkpt>
      <trkpt lat="41.385381" lon="2.199609">
        <ele>7.465</ele>
        <time>2013-02-07T13:20:42Z</time>
      </trkpt>
      <trkpt lat="41.385646" lon="2.199220">
        <ele>4.021</ele>
        <time>2013-02-07T13:21:04Z</time>
      </trkpt>
      <trkpt lat="41.385928" lon="2.198883">
        <ele>5.407</ele>
        <time>2013-02-07T13:21:18Z</time>
      </trkpt>
      <trkpt lat="41.386208" lon="2.198522">
        <ele>3.572</ele>
        <time>2013-02-07T13:21:33Z</time>
      </trkpt>
      <trkpt lat="41.386501" lon="2.198246">
        <ele>4.048</ele>
        <time>2013-02-07T13:21:49Z</time>
      </trkpt>
      <trkpt lat="41.386780" lon="2.197907">
        <ele>2.167</ele>
        <time>2013-02-07T13:22:02Z</time>
      </trkpt>
      <trkpt lat="41.387101" lon="2.197683">
        <ele>4.030</ele>
        <time>2013-02-07T13:22:21Z</time>
      </trkpt>
      <trkpt lat="41.387362" lon="2.198047">
        <ele>2.570</ele>
        <time>2013-02-07T13:22:35Z</time>
      </trkpt>
      <trkpt lat="41.387640" lon="2.198397">
        <ele>4.088</ele>
        <time>2013-02-07T13:22:47Z</time>
      </trkpt>
      <trkpt lat="41.387914" lon="2.198793">
        <ele>4.040</ele>
        <time>2013-02-07T13:22:58Z</time>
      </trkpt>
      <trkpt lat="41.388201" lon="2.199119">
        <ele>3.583</ele>
        <time>2013-02-07T13:23:08Z</time>
      </trkpt>
      <trkpt lat="41.388484" lon="2.199485">
        <ele>4.025</ele>
        <time>2013-02-07T13:23:18Z</time>
      </trkpt>
      <trkpt lat="41.388743" lon="2.199867">
        <ele>3.017</ele>
        <time>2013-02-07T13:23:28Z</time>
      </trkpt>
      <trkpt lat="41.389039" lon="2.200177">
        <ele>2.107</ele>
        <time>2013-02-07T13:23:39Z</time>
      </trkpt>
      <trkpt lat="41.389407" lon="2.200331">
        <ele>2.181</ele>
        <time>2013-02-07T13:23:52Z</time>
      </trkpt>
      <trkpt lat="41.389748" lon="2.200542">
        <ele>3.537</ele>
        <time>2013-02-07T13:24:01Z</time>
      </trkpt>
      <trkpt lat="41.390107" lon="2.200706">
        <ele>1.616</ele>
        <time>2013-02-07T13:24:10Z</time>
      </trkpt>
      <trkpt lat="41.390378" lon="2.201022">
        <ele>2.549</ele>
        <time>2013-02-07T13:24:21Z</time>
      </trkpt>
      <trkpt lat="41.390641" lon="2.201378">
        <ele>1.619</ele>
        <time>2013-02-07T13:24:31Z</time>
      </trkpt>
      <trkpt lat="41.390875" lon="2.201815">
        <ele>2.197</ele>
        <time>2013-02-07T13:24:41Z</time>
      </trkpt>
      <trkpt lat="41.391054" lon="2.202273">
        <ele>2.569</ele>
        <time>2013-02-07T13:24:51Z</time>
      </trkpt>
      <trkpt lat="41.391191" lon="2.202724">
        <ele>2.172</ele>
        <time>2013-02-07T13:25:00Z</time>
      </trkpt>
      <trkpt lat="41.391358" lon="2.203183">
        <ele>1.613</ele>
        <time>2013-02-07T13:25:09Z</time>
      </trkpt>
      <trkpt lat="41.391558" lon="2.203608">
        <ele>1.114</ele>
        <time>2013-02-07T13:25:18Z</time>
      </trkpt>
      <trkpt lat="41.391788" lon="2.204019">
        <ele>0.607</ele>
        <time>2013-02-07T13:25:27Z</time>
      </trkpt>
      <trkpt lat="41.392054" lon="2.204390">
        <ele>1.110</ele>
        <time>2013-02-07T13:25:38Z</time>
      </trkpt>
      <trkpt lat="41.392335" lon="2.204708">
        <ele>1.126</ele>
        <time>2013-02-07T13:25:49Z</time>
      </trkpt>
      <trkpt lat="41.392641" lon="2.204975">
        <ele>1.145</ele>
        <time>2013-02-07T13:25:59Z</time>
      </trkpt>
      <trkpt lat="41.392980" lon="2.205213">
        <ele>0.628</ele>
        <time>2013-02-07T13:26:12Z</time>
      </trkpt>
      <trkpt lat="41.393320" lon="2.205405">
        <ele>2.128</ele>
        <time>2013-02-07T13:26:25Z</time>
      </trkpt>
      <trkpt lat="41.393667" lon="2.205598">
        <ele>3.076</ele>
        <time>2013-02-07T13:26:37Z</time>
      </trkpt>
      <trkpt lat="41.394000" lon="2.205839">
        <ele>2.528</ele>
        <time>2013-02-07T13:26:48Z</time>
      </trkpt>
      <trkpt lat="41.394315" lon="2.206144">
        <ele>3.599</ele>
        <time>2013-02-07T13:26:59Z</time>
      </trkpt>
      <trkpt lat="41.394627" lon="2.206471">
        <ele>3.507</ele>
        <time>2013-02-07T13:27:10Z</time>
      </trkpt>
      <trkpt lat="41.394893" lon="2.206822">
        <ele>3.527</ele>
        <time>2013-02-07T13:27:20Z</time>
      </trkpt>
      <trkpt lat="41.395156" lon="2.207157">
        <ele>3.007</ele>
        <time>2013-02-07T13:27:30Z</time>
      </trkpt>
      <trkpt lat="41.395405" lon="2.207544">
        <ele>3.522</ele>
        <time>2013-02-07T13:27:42Z</time>
      </trkpt>
      <trkpt lat="41.395713" lon="2.207875">
        <ele>3.048</ele>
        <time>2013-02-07T13:27:53Z</time>
      </trkpt>
      <trkpt lat="41.395992" lon="2.208247">
        <ele>3.097</ele>
        <time>2013-02-07T13:28:03Z</time>
      </trkpt>
      <trkpt lat="41.396277" lon="2.208621">
        <ele>1.630</ele>
        <time>2013-02-07T13:28:13Z</time>
      </trkpt>
      <trkpt lat="41.396559" lon="2.208981">
        <ele>-2.320</ele>
        <time>2013-02-07T13:28:21Z</time>
      </trkpt>
      <trkpt lat="41.396904" lon="2.209207">
        <ele>-0.398</ele>
        <time>2013-02-07T13:28:30Z</time>
      </trkpt>
      <trkpt lat="41.397256" lon="2.209365">
        <ele>0.660</ele>
        <time>2013-02-07T13:28:41Z</time>
      </trkpt>
      <trkpt lat="41.397584" lon="2.209563">
        <ele>2.112</ele>
        <time>2013-02-07T13:28:52Z</time>
      </trkpt>
      <trkpt lat="41.397943" lon="2.209671">
        <ele>4.532</ele>
        <time>2013-02-07T13:29:08Z</time>
      </trkpt>
      <trkpt lat="41.398305" lon="2.209693">
        <ele>6.905</ele>
        <time>2013-02-07T13:29:27Z</time>
      </trkpt>
      <trkpt lat="41.398280" lon="2.209226">
        <ele>7.407</ele>
        <time>2013-02-07T13:29:40Z</time>
      </trkpt>
      <trkpt lat="41.398062" lon="2.209114">
        <ele>7.894</ele>
        <time>2013-02-07T13:30:37Z</time>
      </trkpt>
      <trkpt lat="41.398026" lon="2.209686">
        <ele>5.420</ele>
        <time>2013-02-07T13:31:14Z</time>
      </trkpt>
      <trkpt lat="41.397911" lon="2.210206">
        <ele>4.579</ele>
        <time>2013-02-07T13:31:44Z</time>
      </trkpt>
      <trkpt lat="41.397696" lon="2.210608">
        <ele>4.582</ele>
        <time>2013-02-07T13:32:12Z</time>
      </trkpt>
      <trkpt lat="41.397727" lon="2.211073">
        <ele>4.082</ele>
        <time>2013-02-07T13:32:40Z</time>
      </trkpt>
      <trkpt lat="41.398062" lon="2.211319">
        <ele>3.040</ele>
        <time>2013-02-07T13:33:07Z</time>
      </trkpt>
      <trkpt lat="41.398400" lon="2.211576">
        <ele>4.572</ele>
        <time>2013-02-07T13:33:36Z</time>
      </trkpt>
      <trkpt lat="41.398740" lon="2.211827">
        <ele>3.024</ele>
        <time>2013-02-07T13:34:03Z</time>
      </trkpt>
      <trkpt lat="41.399062" lon="2.212062">
        <ele>3.504</ele>
        <time>2013-02-07T13:34:30Z</time>
      </trkpt>
      <trkpt lat="41.399420" lon="2.212334">
        <ele>2.514</ele>
        <time>2013-02-07T13:35:00Z</time>
      </trkpt>
      <trkpt lat="41.399665" lon="2.212683">
        <ele>4.007</ele>
        <time>2013-02-07T13:35:28Z</time>
      </trkpt>
      <trkpt lat="41.399880" lon="2.213072">
        <ele>4.045</ele>
        <time>2013-02-07T13:35:55Z</time>
      </trkpt>
      <trkpt lat="41.400082" lon="2.213475">
        <ele>4.921</ele>
        <time>2013-02-07T13:36:24Z</time>
      </trkpt>
      <trkpt lat="41.400358" lon="2.213822">
        <ele>4.010</ele>
        <time>2013-02-07T13:36:56Z</time>
      </trkpt>
      <trkpt lat="41.400696" lon="2.214055">
        <ele>3.533</ele>
        <time>2013-02-07T13:37:27Z</time>
      </trkpt>
      <trkpt lat="41.401083" lon="2.214254">
        <ele>3.583</ele>
        <time>2013-02-07T13:37:59Z</time>
      </trkpt>
      <trkpt lat="41.401441" lon="2.214457">
        <ele>4.581</ele>
        <time>2013-02-07T13:38:29Z</time>
      </trkpt>
      <trkpt lat="41.401809" lon="2.214686">
        <ele>4.943</ele>
        <time>2013-02-07T13:38:59Z</time>
      </trkpt>
      <trkpt lat="41.402132" lon="2.214864">
        <ele>4.527</ele>
        <time>2013-02-07T13:39:30Z</time>
      </trkpt>
      <trkpt lat="41.402460" lon="2.215128">
        <ele>4.068</ele>
        <time>2013-02-07T13:40:00Z</time>
      </trkpt>
      <trkpt lat="41.402768" lon="2.215423">
        <ele>3.514</ele>
        <time>2013-02-07T13:40:28Z</time>
      </trkpt>
      <trkpt lat="41.403059" lon="2.215760">
        <ele>4.007</ele>
        <time>2013-02-07T13:40:58Z</time>
      </trkpt>
      <trkpt lat="41.403345" lon="2.216108">
        <ele>4.565</ele>
        <time>2013-02-07T13:41:27Z</time>
      </trkpt>
      <trkpt lat="41.403608" lon="2.216474">
        <ele>5.451</ele>
        <time>2013-02-07T13:41:54Z</time>
      </trkpt>
      <trkpt lat="41.403815" lon="2.216142">
        <ele>5.980</ele>
        <time>2013-02-07T13:42:26Z</time>
      </trkpt>
      <trkpt lat="41.403989" lon="2.215733">
        <ele>7.453</ele>
        <time>2013-02-07T13:43:03Z</time>
      </trkpt>
      <trkpt lat="41.404258" lon="2.215345">
        <ele>9.333</ele>
        <time>2013-02-07T13:43:34Z</time>
      </trkpt>
      <trkpt lat="41.404556" lon="2.215039">
        <ele>6.941</ele>
        <time>2013-02-07T13:44:37Z</time>
      </trkpt>
      <trkpt lat="41.404724" lon="2.214613">
        <ele>6.973</ele>
        <time>2013-02-07T13:45:05Z</time>
      </trkpt>
      <trkpt lat="41.404850" lon="2.214306">
        <ele>6.973</ele>
        <time>2013-02-07T13:45:43Z</time>
      </trkpt>
      <trkpt lat="41.405180" lon="2.213579">
        <ele>4.585</ele>
        <time>2013-02-07T13:46:13Z</time>
      </trkpt>
      <trkpt lat="41.405104" lon="2.213810">
        <ele>5.913</ele>
        <time>2013-02-07T13:46:56Z</time>
      </trkpt>
      <trkpt lat="41.404850" lon="2.214187">
        <ele>7.407</ele>
        <time>2013-02-07T13:47:08Z</time>
      </trkpt>
      <trkpt lat="41.404553" lon="2.214585">
        <ele>6.980</ele>
        <time>2013-02-07T13:47:23Z</time>
      </trkpt>
      <trkpt lat="41.404557" lon="2.215057">
        <ele>8.356</ele>
        <time>2013-02-07T13:47:37Z</time>
      </trkpt>
      <trkpt lat="41.404872" lon="2.215416">
        <ele>8.825</ele>
        <time>2013-02-07T13:47:48Z</time>
      </trkpt>
      <trkpt lat="41.405117" lon="2.215812">
        <ele>7.818</ele>
        <time>2013-02-07T13:47:58Z</time>
      </trkpt>
      <trkpt lat="41.405410" lon="2.216186">
        <ele>7.458</ele>
        <time>2013-02-07T13:48:08Z</time>
      </trkpt>
      <trkpt lat="41.405691" lon="2.216534">
        <ele>7.856</ele>
        <time>2013-02-07T13:48:17Z</time>
      </trkpt>
      <trkpt lat="41.405973" lon="2.216934">
        <ele>9.368</ele>
        <time>2013-02-07T13:48:26Z</time>
      </trkpt>
      <trkpt lat="41.406243" lon="2.217297">
        <ele>8.879</ele>
        <time>2013-02-07T13:48:35Z</time>
      </trkpt>
      <trkpt lat="41.406499" lon="2.217656">
        <ele>8.305</ele>
        <time>2013-02-07T13:48:45Z</time>
      </trkpt>
      <trkpt lat="41.406775" lon="2.218021">
        <ele>8.825</ele>
        <time>2013-02-07T13:48:56Z</time>
      </trkpt>
      <trkpt lat="41.407113" lon="2.218182">
        <ele>10.207</ele>
        <time>2013-02-07T13:49:09Z</time>
      </trkpt>
      <trkpt lat="41.407383" lon="2.218542">
        <ele>7.430</ele>
        <time>2013-02-07T13:49:21Z</time>
      </trkpt>
      <trkpt lat="41.407734" lon="2.218819">
        <ele>8.396</ele>
        <time>2013-02-07T13:49:31Z</time>
      </trkpt>
      <trkpt lat="41.408104" lon="2.219105">
        <ele>7.845</ele>
        <time>2013-02-07T13:49:41Z</time>
      </trkpt>
      <trkpt lat="41.408452" lon="2.219288">
        <ele>9.888</ele>
        <time>2013-02-07T13:49:51Z</time>
      </trkpt>
      <trkpt lat="41.408783" lon="2.219562">
        <ele>8.858</ele>
        <time>2013-02-07T13:50:02Z</time>
      </trkpt>
      <trkpt lat="41.409084" lon="2.219909">
        <ele>8.876</ele>
        <time>2013-02-07T13:50:12Z</time>
      </trkpt>
      <trkpt lat="41.409374" lon="2.220205">
        <ele>8.848</ele>
        <time>2013-02-07T13:50:21Z</time>
      </trkpt>
      <trkpt lat="41.409681" lon="2.220531">
        <ele>9.341</ele>
        <time>2013-02-07T13:50:30Z</time>
      </trkpt>
      <trkpt lat="41.409846" lon="2.220947">
        <ele>12.281</ele>
        <time>2013-02-07T13:50:42Z</time>
      </trkpt>
      <trkpt lat="41.409943" lon="2.221428">
        <ele>14.109</ele>
        <time>2013-02-07T13:50:55Z</time>
      </trkpt>
      <trkpt lat="41.410165" lon="2.221833">
        <ele>14.607</ele>
        <time>2013-02-07T13:51:07Z</time>
      </trkpt>
      <trkpt lat="41.410525" lon="2.222008">
        <ele>18.497</ele>
        <time>2013-02-07T13:51:21Z</time>
      </trkpt>
      <trkpt lat="41.410897" lon="2.222177">
        <ele>15.023</ele>
        <time>2013-02-07T13:51:34Z</time>
      </trkpt>
      <trkpt lat="41.411238" lon="2.222472">
        <ele>17.062</ele>
        <time>2013-02-07T13:51:47Z</time>
      </trkpt>
      <trkpt lat="41.411544" lon="2.222818">
        <ele>18.465</ele>
        <time>2013-02-07T13:51:59Z</time>
      </trkpt>
      <trkpt lat="41.411800" lon="2.223206">
        <ele>17.965</ele>
        <time>2013-02-07T13:52:13Z</time>
      </trkpt>
      <trkpt lat="41.411776" lon="2.223730">
        <ele>16.513</ele>
        <time>2013-02-07T13:52:23Z</time>
      </trkpt>
      <trkpt lat="41.411737" lon="2.224279">
        <ele>15.565</ele>
        <time>2013-02-07T13:52:33Z</time>
      </trkpt>
      <trkpt lat="41.411738" lon="2.224808">
        <ele>15.087</ele>
        <time>2013-02-07T13:52:42Z</time>
      </trkpt>
      <trkpt lat="41.411742" lon="2.225301">
        <ele>16.042</ele>
        <time>2013-02-07T13:52:50Z</time>
      </trkpt>
      <trkpt lat="41.411690" lon="2.225829">
        <ele>14.126</ele>
        <time>2013-02-07T13:52:58Z</time>
      </trkpt>
      <trkpt lat="41.411607" lon="2.226366">
        <ele>12.607</ele>
        <time>2013-02-07T13:53:06Z</time>
      </trkpt>
      <trkpt lat="41.411525" lon="2.226864">
        <ele>14.631</ele>
        <time>2013-02-07T13:53:15Z</time>
      </trkpt>
      <trkpt lat="41.411551" lon="2.227363">
        <ele>16.527</ele>
        <time>2013-02-07T13:53:27Z</time>
      </trkpt>
      <trkpt lat="41.411524" lon="2.227866">
        <ele>16.566</ele>
        <time>2013-02-07T13:53:40Z</time>
      </trkpt>
      <trkpt lat="41.411663" lon="2.228036">
        <ele>17.419</ele>
        <time>2013-02-07T13:53:56Z</time>
      </trkpt>
      <trkpt lat="41.411722" lon="2.227474">
        <ele>12.269</ele>
        <time>2013-02-07T13:54:07Z</time>
      </trkpt>
      <trkpt lat="41.411597" lon="2.226947">
        <ele>13.147</ele>
        <time>2013-02-07T13:54:16Z</time>
      </trkpt>
      <trkpt lat="41.411682" lon="2.226454">
        <ele>12.249</ele>
        <time>2013-02-07T13:54:24Z</time>
      </trkpt>
      <trkpt lat="41.412006" lon="2.226309">
        <ele>15.583</ele>
        <time>2013-02-07T13:54:34Z</time>
      </trkpt>
      <trkpt lat="41.412390" lon="2.226347">
        <ele>16.025</ele>
        <time>2013-02-07T13:54:44Z</time>
      </trkpt>
      <trkpt lat="41.412750" lon="2.226535">
        <ele>17.417</ele>
        <time>2013-02-07T13:54:58Z</time>
      </trkpt>
      <trkpt lat="41.413071" lon="2.226813">
        <ele>19.807</ele>
        <time>2013-02-07T13:55:11Z</time>
      </trkpt>
      <trkpt lat="41.413064" lon="2.226808">
        <ele>20.881</ele>
        <time>2013-02-07T13:55:55Z</time>
      </trkpt>
      <trkpt lat="41.412729" lon="2.226493">
        <ele>17.947</ele>
        <time>2013-02-07T13:56:03Z</time>
      </trkpt>
      <trkpt lat="41.412411" lon="2.226213">
        <ele>13.186</ele>
        <time>2013-02-07T13:56:09Z</time>
      </trkpt>
      <trkpt lat="41.412068" lon="2.225911">
        <ele>12.299</ele>
        <time>2013-02-07T13:56:16Z</time>
      </trkpt>
      <trkpt lat="41.411997" lon="2.225461">
        <ele>14.199</ele>
        <time>2013-02-07T13:56:25Z</time>
      </trkpt>
      <trkpt lat="41.412073" lon="2.224939">
        <ele>15.067</ele>
        <time>2013-02-07T13:56:35Z</time>
      </trkpt>
      <trkpt lat="41.412273" lon="2.224618">
        <ele>15.089</ele>
        <time>2013-02-07T13:56:47Z</time>
      </trkpt>
      <trkpt lat="41.412660" lon="2.224665">
        <ele>15.586</ele>
        <time>2013-02-07T13:56:58Z</time>
      </trkpt>
      <trkpt lat="41.412724" lon="2.224249">
        <ele>19.860</ele>
        <time>2013-02-07T13:57:10Z</time>
      </trkpt>
      <trkpt lat="41.412519" lon="2.223819">
        <ele>19.426</ele>
        <time>2013-02-07T13:57:21Z</time>
      </trkpt>
      <trkpt lat="41.412329" lon="2.223409">
        <ele>18.407</ele>
        <time>2013-02-07T13:57:32Z</time>
      </trkpt>
      <trkpt lat="41.412268" lon="2.222920">
        <ele>17.981</ele>
        <time>2013-02-07T13:57:43Z</time>
      </trkpt>
      <trkpt lat="41.412241" lon="2.222425">
        <ele>10.727</ele>
        <time>2013-02-07T13:57:53Z</time>
      </trkpt>
      <trkpt lat="41.412163" lon="2.221959">
        <ele>8.896</ele>
        <time>2013-02-07T13:58:03Z</time>
      </trkpt>
      <trkpt lat="41.412011" lon="2.221459">
        <ele>5.439</ele>
        <time>2013-02-07T13:58:15Z</time>
      </trkpt>
      <trkpt lat="41.411864" lon="2.221016">
        <ele>11.789</ele>
        <time>2013-02-07T13:58:24Z</time>
      </trkpt>
      <trkpt lat="41.411772" lon="2.220515">
        <ele>12.297</ele>
        <time>2013-02-07T13:58:33Z</time>
      </trkpt>
      <trkpt lat="41.411627" lon="2.219991">
        <ele>5.479</ele>
        <time>2013-02-07T13:58:44Z</time>
      </trkpt>
      <trkpt lat="41.411321" lon="2.219570">
        <ele>3.583</ele>
        <time>2013-02-07T13:58:55Z</time>
      </trkpt>
      <trkpt lat="41.410975" lon="2.219310">
        <ele>7.425</ele>
        <time>2013-02-07T13:59:08Z</time>
      </trkpt>
      <trkpt lat="41.410623" lon="2.218945">
        <ele>8.317</ele>
        <time>2013-02-07T13:59:22Z</time>
      </trkpt>
      <trkpt lat="41.410260" lon="2.218628">
        <ele>3.507</ele>
        <time>2013-02-07T13:59:37Z</time>
      </trkpt>
      <trkpt lat="41.409889" lon="2.218337">
        <ele>4.091</ele>
        <time>2013-02-07T13:59:48Z</time>
      </trkpt>
      <trkpt lat="41.409546" lon="2.218019">
        <ele>5.917</ele>
        <time>2013-02-07T13:59:59Z</time>
      </trkpt>
      <trkpt lat="41.409219" lon="2.217755">
        <ele>7.466</ele>
        <time>2013-02-07T14:00:08Z</time>
      </trkpt>
      <trkpt lat="41.408946" lon="2.217366">
        <ele>5.959</ele>
        <time>2013-02-07T14:00:18Z</time>
      </trkpt>
      <trkpt lat="41.408618" lon="2.217077">
        <ele>9.339</ele>
        <time>2013-02-07T14:00:29Z</time>
      </trkpt>
      <trkpt lat="41.408406" lon="2.216714">
        <ele>7.437</ele>
        <time>2013-02-07T14:00:40Z</time>
      </trkpt>
      <trkpt lat="41.408340" lon="2.216433">
        <ele>8.379</ele>
        <time>2013-02-07T14:01:01Z</time>
      </trkpt>
      <trkpt lat="41.407968" lon="2.216131">
        <ele>7.868</ele>
        <time>2013-02-07T14:01:13Z</time>
      </trkpt>
      <trkpt lat="41.407647" lon="2.215778">
        <ele>7.442</ele>
        <time>2013-02-07T14:01:24Z</time>
      </trkpt>
      <trkpt lat="41.407301" lon="2.215438">
        <ele>7.826</ele>
        <time>2013-02-07T14:01:32Z</time>
      </trkpt>
      <trkpt lat="41.406938" lon="2.215134">
        <ele>5.907</ele>
        <time>2013-02-07T14:01:42Z</time>
      </trkpt>
      <trkpt lat="41.406587" lon="2.214778">
        <ele>5.989</ele>
        <time>2013-02-07T14:01:52Z</time>
      </trkpt>
      <trkpt lat="41.406308" lon="2.214437">
        <ele>10.765</ele>
        <time>2013-02-07T14:02:02Z</time>
      </trkpt>
      <trkpt lat="41.406059" lon="2.214020">
        <ele>8.854</ele>
        <time>2013-02-07T14:02:16Z</time>
      </trkpt>
      <trkpt lat="41.405987" lon="2.213511">
        <ele>9.357</ele>
        <time>2013-02-07T14:02:27Z</time>
      </trkpt>
      <trkpt lat="41.405763" lon="2.213078">
        <ele>7.817</ele>
        <time>2013-02-07T14:02:40Z</time>
      </trkpt>
      <trkpt lat="41.405380" lon="2.213142">
        <ele>7.865</ele>
        <time>2013-02-07T14:02:55Z</time>
      </trkpt>
      <trkpt lat="41.405012" lon="2.212882">
        <ele>8.817</ele>
        <time>2013-02-07T14:03:07Z</time>
      </trkpt>
      <trkpt lat="41.404765" lon="2.212434">
        <ele>6.946</ele>
        <time>2013-02-07T14:03:16Z</time>
      </trkpt>
      <trkpt lat="41.404431" lon="2.211987">
        <ele>5.988</ele>
        <time>2013-02-07T14:03:26Z</time>
      </trkpt>
      <trkpt lat="41.404154" lon="2.211662">
        <ele>4.516</ele>
        <time>2013-02-07T14:03:33Z</time>
      </trkpt>
      <trkpt lat="41.403841" lon="2.211333">
        <ele>5.407</ele>
        <time>2013-02-07T14:03:41Z</time>
      </trkpt>
      <trkpt lat="41.403508" lon="2.211028">
        <ele>5.977</ele>
        <time>2013-02-07T14:03:53Z</time>
      </trkpt>
      <trkpt lat="41.403239" lon="2.210683">
        <ele>7.813</ele>
        <time>2013-02-07T14:04:02Z</time>
      </trkpt>
      <trkpt lat="41.402977" lon="2.210325">
        <ele>6.942</ele>
        <time>2013-02-07T14:04:11Z</time>
      </trkpt>
      <trkpt lat="41.402737" lon="2.209906">
        <ele>5.455</ele>
        <time>2013-02-07T14:04:22Z</time>
      </trkpt>
      <trkpt lat="41.402467" lon="2.209542">
        <ele>6.975</ele>
        <time>2013-02-07T14:04:31Z</time>
      </trkpt>
      <trkpt lat="41.402162" lon="2.209217">
        <ele>7.433</ele>
        <time>2013-02-07T14:04:39Z</time>
      </trkpt>
      <trkpt lat="41.401858" lon="2.208869">
        <ele>7.885</ele>
        <time>2013-02-07T14:04:47Z</time>
      </trkpt>
      <trkpt lat="41.401546" lon="2.208512">
        <ele>10.293</ele>
        <time>2013-02-07T14:04:56Z</time>
      </trkpt>
      <trkpt lat="41.401276" lon="2.208148">
        <ele>8.365</ele>
        <time>2013-02-07T14:05:04Z</time>
      </trkpt>
      <trkpt lat="41.400983" lon="2.207751">
        <ele>6.421</ele>
        <time>2013-02-07T14:05:16Z</time>
      </trkpt>
      <trkpt lat="41.400682" lon="2.207356">
        <ele>6.407</ele>
        <time>2013-02-07T14:05:25Z</time>
      </trkpt>
      <trkpt lat="41.400550" lon="2.206893">
        <ele>7.412</ele>
        <time>2013-02-07T14:05:41Z</time>
      </trkpt>
      <trkpt lat="41.400325" lon="2.206818">
        <ele>6.948</ele>
        <time>2013-02-07T14:05:56Z</time>
      </trkpt>
      <trkpt lat="41.400015" lon="2.206448">
        <ele>6.927</ele>
        <time>2013-02-07T14:06:05Z</time>
      </trkpt>
      <trkpt lat="41.399731" lon="2.206126">
        <ele>5.930</ele>
        <time>2013-02-07T14:06:13Z</time>
      </trkpt>
      <trkpt lat="41.399614" lon="2.205695">
        <ele>6.410</ele>
        <time>2013-02-07T14:06:25Z</time>
      </trkpt>
      <trkpt lat="41.399898" lon="2.205244">
        <ele>5.448</ele>
        <time>2013-02-07T14:06:39Z</time>
      </trkpt>
      <trkpt lat="41.399592" lon="2.204764">
        <ele>5.950</ele>
        <time>2013-02-07T14:06:53Z</time>
      </trkpt>
      <trkpt lat="41.399244" lon="2.204384">
        <ele>6.464</ele>
        <time>2013-02-07T14:07:03Z</time>
      </trkpt>
      <trkpt lat="41.399116" lon="2.203905">
        <ele>5.406</ele>
        <time>2013-02-07T14:07:16Z</time>
      </trkpt>
      <trkpt lat="41.398769" lon="2.203609">
        <ele>6.416</ele>
        <time>2013-02-07T14:07:29Z</time>
      </trkpt>
      <trkpt lat="41.398468" lon="2.203252">
        <ele>6.407</ele>
        <time>2013-02-07T14:07:39Z</time>
      </trkpt>
      <trkpt lat="41.398231" lon="2.202845">
        <ele>5.479</ele>
        <time>2013-02-07T14:07:50Z</time>
      </trkpt>
      <trkpt lat="41.397948" lon="2.202514">
        <ele>6.485</ele>
        <time>2013-02-07T14:08:04Z</time>
      </trkpt>
      <trkpt lat="41.397667" lon="2.202146">
        <ele>4.974</ele>
        <time>2013-02-07T14:08:17Z</time>
      </trkpt>
      <trkpt lat="41.397480" lon="2.201678">
        <ele>5.917</ele>
        <time>2013-02-07T14:08:32Z</time>
      </trkpt>
      <trkpt lat="41.397319" lon="2.201506">
        <ele>6.437</ele>
        <time>2013-02-07T14:08:55Z</time>
      </trkpt>
      <trkpt lat="41.396998" lon="2.201080">
        <ele>6.485</ele>
        <time>2013-02-07T14:09:07Z</time>
      </trkpt>
      <trkpt lat="41.396720" lon="2.200730">
        <ele>6.467</ele>
        <time>2013-02-07T14:09:16Z</time>
      </trkpt>
      <trkpt lat="41.396518" lon="2.200340">
        <ele>5.913</ele>
        <time>2013-02-07T14:09:28Z</time>
      </trkpt>
      <trkpt lat="41.396199" lon="2.200090">
        <ele>6.443</ele>
        <time>2013-02-07T14:09:39Z</time>
      </trkpt>
      <trkpt lat="41.395942" lon="2.199712">
        <ele>6.407</ele>
        <time>2013-02-07T14:09:48Z</time>
      </trkpt>
      <trkpt lat="41.395716" lon="2.199288">
        <ele>5.407</ele>
        <time>2013-02-07T14:10:01Z</time>
      </trkpt>
      <trkpt lat="41.395379" lon="2.198958">
        <ele>6.414</ele>
        <time>2013-02-07T14:10:15Z</time>
      </trkpt>
      <trkpt lat="41.395134" lon="2.198586">
        <ele>6.420</ele>
        <time>2013-02-07T14:10:24Z</time>
      </trkpt>
      <trkpt lat="41.394946" lon="2.198205">
        <ele>6.499</ele>
        <time>2013-02-07T14:10:39Z</time>
      </trkpt>
      <trkpt lat="41.394624" lon="2.198197">
        <ele>5.432</ele>
        <time>2013-02-07T14:10:58Z</time>
      </trkpt>
      <trkpt lat="41.394450" lon="2.198641">
        <ele>5.442</ele>
        <time>2013-02-07T14:11:09Z</time>
      </trkpt>
      <trkpt lat="41.394138" lon="2.199012">
        <ele>4.990</ele>
        <time>2013-02-07T14:11:18Z</time>
      </trkpt>
      <trkpt lat="41.393855" lon="2.199392">
        <ele>4.952</ele>
        <time>2013-02-07T14:11:27Z</time>
      </trkpt>
      <trkpt lat="41.393810" lon="2.199757">
        <ele>5.442</ele>
        <time>2013-02-07T14:11:43Z</time>
      </trkpt>
      <trkpt lat="41.393892" lon="2.200188">
        <ele>3.522</ele>
        <time>2013-02-07T14:11:56Z</time>
      </trkpt>
      <trkpt lat="41.394141" lon="2.200623">
        <ele>6.414</ele>
        <time>2013-02-07T14:12:28Z</time>
      </trkpt>
      <trkpt lat="41.394322" lon="2.201063">
        <ele>5.907</ele>
        <time>2013-02-07T14:13:08Z</time>
      </trkpt>
      <trkpt lat="41.394110" lon="2.201487">
        <ele>9.387</ele>
        <time>2013-02-07T14:13:20Z</time>
      </trkpt>
      <trkpt lat="41.393789" lon="2.201854">
        <ele>11.793</ele>
        <time>2013-02-07T14:13:30Z</time>
      </trkpt>
      <trkpt lat="41.393166" lon="2.202299">
        <ele>12.622</ele>
        <time>2013-02-07T14:13:42Z</time>
      </trkpt>
      <trkpt lat="41.392825" lon="2.202671">
        <ele>11.765</ele>
        <time>2013-02-07T14:13:55Z</time>
      </trkpt>
      <trkpt lat="41.392550" lon="2.203039">
        <ele>12.285</ele>
        <time>2013-02-07T14:14:05Z</time>
      </trkpt>
      <trkpt lat="41.392270" lon="2.203316">
        <ele>9.323</ele>
        <time>2013-02-07T14:14:15Z</time>
      </trkpt>
      <trkpt lat="41.392008" lon="2.203708">
        <ele>8.895</ele>
        <time>2013-02-07T14:14:27Z</time>
      </trkpt>
      <trkpt lat="41.391743" lon="2.203301">
        <ele>7.849</ele>
        <time>2013-02-07T14:15:03Z</time>
      </trkpt>
      <trkpt lat="41.391544" lon="2.202842">
        <ele>6.902</ele>
        <time>2013-02-07T14:15:14Z</time>
      </trkpt>
      <trkpt lat="41.391393" lon="2.202346">
        <ele>7.822</ele>
        <time>2013-02-07T14:15:25Z</time>
      </trkpt>
      <trkpt lat="41.391154" lon="2.201890">
        <ele>7.807</ele>
        <time>2013-02-07T14:15:42Z</time>
      </trkpt>
      <trkpt lat="41.390959" lon="2.201472">
        <ele>7.837</ele>
        <time>2013-02-07T14:15:52Z</time>
      </trkpt>
      <trkpt lat="41.390719" lon="2.201042">
        <ele>7.453</ele>
        <time>2013-02-07T14:16:01Z</time>
      </trkpt>
      <trkpt lat="41.390426" lon="2.200675">
        <ele>7.412</ele>
        <time>2013-02-07T14:16:10Z</time>
      </trkpt>
      <trkpt lat="41.390118" lon="2.200376">
        <ele>7.455</ele>
        <time>2013-02-07T14:16:19Z</time>
      </trkpt>
      <trkpt lat="41.390025" lon="2.199918">
        <ele>8.835</ele>
        <time>2013-02-07T14:16:33Z</time>
      </trkpt>
      <trkpt lat="41.390333" lon="2.199544">
        <ele>9.833</ele>
        <time>2013-02-07T14:16:46Z</time>
      </trkpt>
      <trkpt lat="41.390583" lon="2.199124">
        <ele>9.315</ele>
        <time>2013-02-07T14:17:13Z</time>
      </trkpt>
      <trkpt lat="41.390351" lon="2.198692">
        <ele>8.325</ele>
        <time>2013-02-07T14:17:26Z</time>
      </trkpt>
      <trkpt lat="41.389970" lon="2.198346">
        <ele>7.826</ele>
        <time>2013-02-07T14:17:38Z</time>
      </trkpt>
      <trkpt lat="41.390079" lon="2.197722">
        <ele>10.708</ele>
        <time>2013-02-07T14:17:52Z</time>
      </trkpt>
      <trkpt lat="41.390373" lon="2.197378">
        <ele>7.407</ele>
        <time>2013-02-07T14:18:03Z</time>
      </trkpt>
      <trkpt lat="41.390703" lon="2.197102">
        <ele>6.415</ele>
        <time>2013-02-07T14:18:14Z</time>
      </trkpt>
      <trkpt lat="41.390608" lon="2.196566">
        <ele>6.961</ele>
        <time>2013-02-07T14:19:52Z</time>
      </trkpt>
      <trkpt lat="41.390108" lon="2.196220">
        <ele>6.920</ele>
        <time>2013-02-07T14:20:55Z</time>
      </trkpt>
      <trkpt lat="41.390391" lon="2.195267">
        <ele>7.823</ele>
        <time>2013-02-07T14:21:48Z</time>
      </trkpt>
      <trkpt lat="41.390688" lon="2.194485">
        <ele>8.883</ele>
        <time>2013-02-07T14:22:26Z</time>
      </trkpt>
      <trkpt lat="41.391024" lon="2.194002">
        <ele>8.371</ele>
        <time>2013-02-07T14:23:06Z</time>
      </trkpt>
      <trkpt lat="41.391020" lon="2.193604">
        <ele>8.863</ele>
        <time>2013-02-07T14:23:55Z</time>
      </trkpt>
      <trkpt lat="41.390764" lon="2.192887">
        <ele>9.323</ele>
        <time>2013-02-07T14:24:39Z</time>
      </trkpt>
    </trkseg>
  </trk></gpx>
